{
    "pager": {
        "page": 1,
        "total": 23,
        "pageSize": 10,
        "nextPage": "https://debug.dhis2.org/dev/api/41/categoryCombos?page=2&pageSize=10&fields=id%2CdisplayName%2CisDefault&order=isDefault%3Adesc%2CdisplayName",
        "pageCount": 3
    },
    "categoryCombos": [
        { "displayName": "Births", "id": "m2jTvAj5kkm", "isDefault": false },
        {
            "displayName": "Commodities",
            "id": "gbvX3pogf7p",
            "isDefault": false
        },
        {
            "displayName": "Fixed/Outreach",
            "id": "KYYSTxeVw28",
            "isDefault": false
        },
        { "displayName": "Gender", "id": "dPmavA0qloX", "isDefault": false },
        {
            "displayName": "HIV Paed age+gender",
            "id": "v1K6CE6bmtw",
            "isDefault": false
        },
        { "displayName": "HIV age", "id": "Wfan7UwK8CQ", "isDefault": false },
        {
            "displayName": "HIV age+gender",
            "id": "jCNGsC2NawV",
            "isDefault": false
        },
        {
            "displayName": "Implementing Partner",
            "id": "nM3u9s5a52V",
            "isDefault": false
        },
        {
            "displayName": "Implementing Partner and Projects",
            "id": "O4VaNks6tta",
            "isDefault": false
        }
    ]
}
